order_id,email,firstname,lastname,prefix,middlename,suffix,taxvat,created_at,updated_at,invoice_created_at,shipment_created_at,creditmemo_created_at,tax_amount,base_tax_amount,discount_amount,base_discount_amount,shipping_tax_amount,base_shipping_tax_amount,base_to_global_rate,base_to_order_rate,store_to_base_rate,store_to_order_rate,subtotal_incl_tax,base_subtotal_incl_tax,coupon_code,shipping_incl_tax,base_shipping_incl_tax,shipping_method,shipping_amount,subtotal,base_subtotal,grand_total,base_grand_total,base_shipping_amount,adjustment_positive,adjustment_negative,refunded_shipping_amount,base_refunded_shipping_amount,refunded_subtotal,base_refunded_subtotal,refunded_tax_amount,base_refunded_tax_amount,refunded_discount_amount,base_refunded_discount_amount,store_id,order_status,order_state,hold_before_state,hold_before_status,store_currency_code,base_currency_code,order_currency_code,total_paid,base_total_paid,is_virtual,total_qty_ordered,remote_ip,total_refunded,base_total_refunded,total_canceled,total_invoiced,customer_id,billing_prefix,billing_firstname,billing_middlename,billing_lastname,billing_suffix,billing_street_full,billing_city,billing_region,billing_country,billing_postcode,billing_telephone,billing_company,billing_fax,customer_id,shipping_prefix,shipping_firstname,shipping_middlename,shipping_lastname,shipping_suffix,shipping_street_full,shipping_city,shipping_region,shipping_country,shipping_postcode,shipping_telephone,shipping_company,shipping_fax,payment_method,product_sku,product_name,qty_ordered,qty_invoiced,qty_shipped,qty_refunded,qty_canceled,product_type,original_price,base_original_price,row_total,base_row_total,row_weight,price_incl_tax,base_price_incl_tax,product_tax_amount,product_base_tax_amount,product_tax_percent,product_discount,product_base_discount,product_discount_percent,is_child,product_option
100006423,keran.donzow@outlook.com,Keran,Donzow,,,,,"2016-04-07 22:55:16","2016-04-09 04:40:42","2016-04-07 22:55:22","2016-04-09 04:40:18",,0.0000,0.0000,0.0000,0.0000,0.0000,0.0000,1.0000,1.0000,1.0000,1.0000,349.0000,349.0000,,132.5400,132.5400,Temando,132.5400,349.0000,349.0000,481.5400,481.5400,132.5400,0,0,0,0,0,0,0,0,0,0,1,complete,complete,,,AUD,AUD,AUD,481.5400,481.5400,0,1.0000,150.191.12.10,,,,481.5400,,,Keran,,Donzow,,"30 Inverway Cct",FARRAR,"Northern Territory",AU,0830,0437579551,,,,,Keran,,Donzow,,"30 Inverway Cct",FARRAR,"Northern Territory",AU,0830,0437579551,,,ewayau_direct,deluxebabychangetablewalnut,"Deluxe baby change table/changer / 4 chest of drawers/free change pad---walnut",1,1,1,0,0,simple,349.0000,349.0000,349.0000,349.0000,50.0000,349.0000,349.0000,0.0000,0.0000,0.0000,0.0000,0.0000,0.0000,no,"a:1:{s:15:""info_buyRequest"";a:7:{s:4:""uenc"";s:180:""aHR0cDovL3d3dy5iYWJ5LWRpcmVjdC5jb20uYXUvbnVyc2VyeS1mdXJuaXR1cmUtb24tc2FsZS9kZWx1eGUtYmFieS1jaGFuZ2UtdGFibGUtY2hhbmdlci00LWNoZXN0LW9mLWRyYXdlcnMtZnJlZS1jaGFuZ2UtcGFkLXdhbG51dC5odG1s"";s:7:""product"";s:3:""752"";s:3:""sku"";s:27:""deluxebabychangetablewalnut"";s:10:""finalprice"";s:8:""349.0000"";s:5:""pagek"";s:7:""product"";s:15:""related_product"";s:0:"""";s:3:""qty"";s:1:""1"";}}"
100006424,jerry198598@hotmail.com,qiyun,wang,,,,,"2016-04-07 23:15:27","2016-04-07 23:19:18","2016-04-07 23:15:33",,,0.0000,0.0000,0.0000,0.0000,0.0000,0.0000,1.0000,1.0000,1.0000,1.0000,888.9500,888.9500,,0.0000,0.0000,"Temando - Free Shipping",0.0000,888.9500,888.9500,888.9500,888.9500,0.0000,0,0,0,0,0,0,0,0,0,0,1,processing,processing,,,AUD,AUD,AUD,888.9500,888.9500,0,2.0000,14.137.207.46,,,,888.9500,23,,qiyun,,wang,,"129 burnley street","richmond ",Victoria,AU,3121,0426226928,,,23,,qiyun,,wang,,"129 burnley street","richmond ",Victoria,AU,3121,0426226928,,,ewayau_direct,jesancpcc,"JANE EPIC STROLLER AND NANO CARRYCOT PACKAGE CLAY",1,1,0,0,0,simple,849.0000,849.0000,849.0000,849.0000,0.0000,849.0000,849.0000,0.0000,0.0000,0.0000,0.0000,0.0000,0.0000,no,"a:1:{s:15:""info_buyRequest"";a:8:{s:4:""uenc"";s:112:""aHR0cDovL3d3dy5iYWJ5LWRpcmVjdC5jb20uYXUvamFuZS1lcGljLXN0cm9sbGVyLWFuZC1uYW5vLWNhcnJ5Y290LXBhY2thZ2UtY2xheS5odG1s"";s:7:""product"";s:4:""1534"";s:3:""sku"";s:9:""jesancpcc"";s:10:""finalprice"";s:8:""799.0000"";s:5:""pagek"";s:7:""product"";s:15:""related_product"";s:0:"""";s:8:""preorder"";s:2:""No"";s:3:""qty"";s:1:""0"";}}"
,,,,,,,,,,,,,,,,,,,,,,,,,,,,,,,,,,,,,,,,,,,,,,,,,,,,,,,,,,,,,,,,,,,,,,,,,,,,,,,,,,,,,,,,,,,strollerO-B,"SkipHop Grab & Go Stroller Organiser - Black",1,1,0,0,0,simple,39.9500,39.9500,39.9500,39.9500,0.0000,39.9500,39.9500,0.0000,0.0000,0.0000,0.0000,0.0000,0.0000,no,"a:1:{s:15:""info_buyRequest"";a:7:{s:4:""uenc"";s:100:""aHR0cDovL3d3dy5iYWJ5LWRpcmVjdC5jb20uYXUvc2tpcGhvcC1ncmFiLWdvLXN0cm9sbGVyLW9yZ2FuaXNlci1ibGFjay5odG1s"";s:7:""product"";s:4:""1106"";s:3:""sku"";s:11:""strollerO-B"";s:10:""finalprice"";s:5:""39.95"";s:5:""pagek"";s:7:""product"";s:15:""related_product"";s:0:"""";s:3:""qty"";s:1:""0"";}}"
100006425,ngoc.crisafulli@plas.com.au,Minh,Pham,,,,,"2016-04-08 04:26:22","2016-04-08 05:18:24","2016-04-08 04:26:26",,,0.0000,0.0000,0.0000,0.0000,0.0000,0.0000,1.0000,1.0000,1.0000,1.0000,139.0000,139.0000,,21.3600,21.3600,Temando,21.3600,139.0000,139.0000,160.3600,160.3600,21.3600,0,0,0,0,0,0,0,0,0,0,1,processing,processing,,,AUD,AUD,AUD,160.3600,160.3600,0,1.0000,27.32.16.27,,,,160.3600,,,Minh,,Pham,,"19 Boronia Street","CONCORD WEST","New South Wales",AU,2138,0434247339,,,,,Minh,,Pham,,"19 Boronia Street","CONCORD WEST","New South Wales",AU,2138,0434247339,,,ewayau_direct,motherschoicemattress,"Mother's Choice Mattress",1,1,0,0,0,simple,139.0000,139.0000,139.0000,139.0000,20.0000,139.0000,139.0000,0.0000,0.0000,0.0000,0.0000,0.0000,0.0000,no,"a:1:{s:15:""info_buyRequest"";a:7:{s:4:""uenc"";s:132:""aHR0cDovL3d3dy5iYWJ5LWRpcmVjdC5jb20uYXUvYmFieS1jb3RzLWJhYnktZnVybml0dXJlL2NvdC1tYXR0cmVzcy9tb3RoZXItcy1jaG9pY2UtbWF0dHJlc3MuaHRtbA,,"";s:7:""product"";s:3:""788"";s:3:""sku"";s:21:""motherschoicemattress"";s:10:""finalprice"";s:8:""139.0000"";s:5:""pagek"";s:7:""product"";s:15:""related_product"";s:0:"""";s:3:""qty"";s:1:""1"";}}"
100006426,mandapandabear11@hotmail.com,"Amanda ",Braysher,,,,,"2016-04-08 05:29:29","2016-04-09 04:53:36","2016-04-08 05:29:32","2016-04-09 04:53:02",,0.0000,0.0000,0.0000,0.0000,0.0000,0.0000,1.0000,1.0000,1.0000,1.0000,349.0000,349.0000,,34.3200,34.3200,Temando,34.3200,349.0000,349.0000,383.3200,383.3200,34.3200,0,0,0,0,0,0,0,0,0,0,1,complete,complete,,,AUD,AUD,AUD,383.3200,383.3200,0,1.0000,42.241.130.240,,,,383.3200,,,"Amanda ",,Braysher,,"26 Erebus Glen Hallett Cove","HALLETT COVE","South Australia",AU,5158,0438007262,,,,,"Amanda ",,Braysher,,"26 Erebus Glen Hallett Cove","HALLETT COVE","South Australia",AU,5158,0438007262,,,ewayau_direct,deluxebabychangetable,"Deluxe baby change table changer / 4 chest of drawers/free change pad---white",1,1,1,0,0,simple,349.0000,349.0000,349.0000,349.0000,50.0000,349.0000,349.0000,0.0000,0.0000,0.0000,0.0000,0.0000,0.0000,no,"a:1:{s:15:""info_buyRequest"";a:7:{s:4:""uenc"";s:180:""aHR0cDovL3d3dy5iYWJ5LWRpcmVjdC5jb20uYXUvZGVsdXhlLWJhYnktY2hhbmdlLXRhYmxlLWNoYW5nZXItNC1jaGVzdC1vZi1kcmF3ZXJzLWZyZWUtY2hhbmdlLXBhZC5odG1sP2djbGlkPUNKbm10WmVtX3NzQ0ZRR2J2QW9kVTFZRFBR"";s:7:""product"";s:3:""751"";s:3:""sku"";s:21:""deluxebabychangetable"";s:10:""finalprice"";s:8:""349.0000"";s:5:""pagek"";s:7:""product"";s:15:""related_product"";s:0:"""";s:3:""qty"";s:1:""0"";}}"
100006427,Palaklad@yahoo.com,Palak,Lad,,,,,"2016-04-08 11:33:53","2016-04-09 04:30:06","2016-04-08 11:34:02","2016-04-09 04:29:36",,0.0000,0.0000,0.0000,0.0000,0.0000,0.0000,1.0000,1.0000,1.0000,1.0000,349.0000,349.0000,,0.0000,0.0000,"Temando - Free Shipping",0.0000,349.0000,349.0000,349.0000,349.0000,0.0000,0,0,0,0,0,0,0,0,0,0,1,complete,complete,,,AUD,AUD,AUD,349.0000,349.0000,0,1.0000,58.178.105.75,,,,349.0000,,,Palak,,Lad,,"7 crossway ave",TARNEIT,Victoria,AU,3029,99746655,,,,,Anand,,Intwala,,"5/35 Lithgow st","Glen iris",Victoria,AU,3146,0430001279,,,ewayau_direct,siestaaranciaorange,"Peg Perego Siesta High Chair - Arancia Orange",1,1,1,0,0,simple,349.0000,349.0000,349.0000,349.0000,0.0000,349.0000,349.0000,0.0000,0.0000,0.0000,0.0000,0.0000,0.0000,no,"a:1:{s:15:""info_buyRequest"";a:7:{s:4:""uenc"";s:96:""aHR0cDovL3d3dy5iYWJ5LWRpcmVjdC5jb20uYXUvcGVnLXBlcmVnby1zaWVzdGEtaGlnaC1jaGFpci1vcmFuZ2UuaHRtbA,,"";s:7:""product"";s:3:""566"";s:3:""sku"";s:19:""siestaaranciaorange"";s:10:""finalprice"";s:8:""349.0000"";s:5:""pagek"";s:7:""product"";s:15:""related_product"";s:0:"""";s:3:""qty"";s:2:""01"";}}"
100006428,emma_whiteman@live.com.au,Emma,Whiteman,,,,,"2016-04-08 23:36:16","2016-04-09 03:00:08","2016-04-08 23:36:20",,,0.0000,0.0000,0.0000,0.0000,0.0000,0.0000,1.0000,1.0000,1.0000,1.0000,1199.0000,1199.0000,,338.1800,338.1800,Temando,338.1800,1199.0000,1199.0000,1537.1800,1537.1800,338.1800,0,0,0,0,0,0,0,0,0,0,1,processing,processing,,,AUD,AUD,AUD,1537.1800,1537.1800,0,1.0000,49.196.2.183,,,,1537.1800,,,Emma,,Whiteman,,"9 Brodie crescent","SOUTH HEDLAND","Western Australia",AU,6722,0457497592,,,,,Emma,,Whiteman,,"9 Brodie crescent","SOUTH HEDLAND","Western Australia",AU,6722,0457497592,,,ewayau_direct,hudsoncotpackage,"Grotime hudson 4in1 Cot  Cot Mattress  Bella Change Table & Spartan Chest Package- walnut ",1,1,0,0,0,simple,1199.0000,1199.0000,1199.0000,1199.0000,150.0000,1199.0000,1199.0000,0.0000,0.0000,0.0000,0.0000,0.0000,0.0000,no,"a:1:{s:15:""info_buyRequest"";a:7:{s:4:""uenc"";s:160:""aHR0cDovL3d3dy5iYWJ5LWRpcmVjdC5jb20uYXUvZ3JvdGltZS1odWRzb24tNGluMS1jb3QtY290LW1hdHRyZXNzLWJlbGxhLWNoYW5nZS10YWJsZS1zcGFydGFuLWNoZXN0LXBhY2thZ2Utd2FsbnV0Lmh0bWw,"";s:7:""product"";s:4:""1551"";s:3:""sku"";s:16:""hudsoncotpackage"";s:10:""finalprice"";s:9:""1199.0000"";s:5:""pagek"";s:7:""product"";s:15:""related_product"";s:0:"""";s:3:""qty"";s:1:""1"";}}"
100006429,Sutto1974@hotmail.com,"Lee ",Sutton,,,,,"2016-04-09 01:47:14","2016-04-09 03:02:19","2016-04-09 01:47:16",,,0.0000,0.0000,0.0000,0.0000,0.0000,0.0000,1.0000,1.0000,1.0000,1.0000,888.0000,888.0000,,145.7100,145.7100,Temando,145.7100,888.0000,888.0000,1033.7100,1033.7100,145.7100,0,0,0,0,0,0,0,0,0,0,1,processing,processing,,,AUD,AUD,AUD,1033.7100,1033.7100,0,2.0000,1.129.96.131,,,,1033.7100,,,"Lee ",,Sutton,,"11 Dudley 
Street",Gilgandra,"New South Wales",AU,2827,0413528183,,,,,"Lee ",,Sutton,,"11 Dudley 
Street",Gilgandra,"New South Wales",AU,2827,0413528183,,,ewayau_direct,deluxecot7chestwhite,"Baby direct deluxe 3 in 1 sleigh cot + Urbane 7 chest drawer white",1,1,0,0,0,simple,749.0000,749.0000,749.0000,749.0000,55.0000,749.0000,749.0000,0.0000,0.0000,0.0000,0.0000,0.0000,0.0000,no,"a:1:{s:15:""info_buyRequest"";a:7:{s:4:""uenc"";s:132:""aHR0cDovL3d3dy5iYWJ5LWRpcmVjdC5jb20uYXUvYmFieS1kaXJlY3QtZGVsdXhlLTMtaW4tMS1zbGVpZ2gtY290LXVyYmFuZS03LWNoZXN0LWRyYXdlci13aGl0ZS5odG1s"";s:7:""product"";s:4:""1455"";s:3:""sku"";s:20:""deluxecot7chestwhite"";s:10:""finalprice"";s:8:""749.0000"";s:5:""pagek"";s:7:""product"";s:15:""related_product"";s:0:"""";s:3:""qty"";s:1:""1"";}}"
,,,,,,,,,,,,,,,,,,,,,,,,,,,,,,,,,,,,,,,,,,,,,,,,,,,,,,,,,,,,,,,,,,,,,,,,,,,,,,,,,,,,,,,,,,,motherschoicemattress,"Mother's Choice Mattress",1,1,0,0,0,simple,139.0000,139.0000,139.0000,139.0000,20.0000,139.0000,139.0000,0.0000,0.0000,0.0000,0.0000,0.0000,0.0000,no,"a:1:{s:15:""info_buyRequest"";a:7:{s:4:""uenc"";s:80:""aHR0cDovL3d3dy5iYWJ5LWRpcmVjdC5jb20uYXUvbW90aGVyLXMtY2hvaWNlLW1hdHRyZXNzLmh0bWw,"";s:7:""product"";s:3:""788"";s:3:""sku"";s:21:""motherschoicemattress"";s:10:""finalprice"";s:8:""139.0000"";s:5:""pagek"";s:7:""product"";s:15:""related_product"";s:0:"""";s:3:""qty"";s:1:""1"";}}"
100006430,Emma@totalworkfitsolutions.com,Emma,Beltz,,,,,"2016-04-09 06:34:45","2016-04-11 02:56:48","2016-04-09 06:34:52",,,0.0000,0.0000,0.0000,0.0000,0.0000,0.0000,1.0000,1.0000,1.0000,1.0000,1349.0000,1349.0000,,17.6200,17.6200,Temando,17.6200,1349.0000,1349.0000,1366.6200,1366.6200,17.6200,0,0,0,0,0,0,0,0,0,0,1,processing,processing,,,AUD,AUD,AUD,1366.6200,1366.6200,0,1.0000,1.152.96.15,,,,1366.6200,,,Emma,,Beltz,,"60 Derwentwater Ave","Sandy Bay",Tasmania,AU,7005,0498829444,"Total Workfit Solutions",,,,Emma,,Beltz,,"60 Derwentwater Ave","Sandy Bay",Tasmania,AU,7005,0498829444,"Total Workfit Solutions",,ewayau_direct,uppababyvistajake,"Uppababy Vista Jake",1,1,0,0,0,simple,1349.0000,1349.0000,1349.0000,1349.0000,17.0000,1349.0000,1349.0000,0.0000,0.0000,0.0000,0.0000,0.0000,0.0000,no,"a:1:{s:15:""info_buyRequest"";a:7:{s:4:""uenc"";s:160:""aHR0cDovL3d3dy5iYWJ5LWRpcmVjdC5jb20uYXUvYmFieS1wcmFtcy1iYWJ5LXN0cm9sbGVyL3VwcGFiYWJ5L3VwcGFiYWJ5dmlzdGFqYWtlLmh0bWw_Z2NsaWQ9Q09EcTBManpnTXdDRlVhV3ZRb2RDS0VBUkE,"";s:7:""product"";s:4:""1360"";s:3:""sku"";s:17:""uppababyvistajake"";s:10:""finalprice"";s:9:""1349.0000"";s:5:""pagek"";s:7:""product"";s:15:""related_product"";s:0:"""";s:3:""qty"";s:1:""1"";}}"
100006431,dinhtamluc@yahoo.com.au,"Van Dinh",Le,,,,,"2016-04-09 06:44:41","2016-04-09 06:44:44","2016-04-09 06:44:44",,,0.0000,0.0000,0.0000,0.0000,0.0000,0.0000,1.0000,1.0000,1.0000,1.0000,378.0000,378.0000,,33.6200,33.6200,Temando,33.6200,378.0000,378.0000,411.6200,411.6200,33.6200,0,0,0,0,0,0,0,0,0,0,1,processing,processing,,,AUD,AUD,AUD,411.6200,411.6200,0,2.0000,101.187.87.244,,,,411.6200,,,"Van Dinh",,Le,,"Unit 6/11-13 Potter Close Wetherill Park NSW
Unit 6/11-13 Potter Close Wetherill Park NSW","Wetherill Park","New South Wales",AU,2164,0297574895,"L&T Filters P/L",0297574908,,,"Van Dinh",,Le,,"Unit 6/11-13 Potter Close Wetherill Park NSW
Unit 6/11-13 Potter Close Wetherill Park NSW","Wetherill Park","New South Wales",AU,2164,0297574895,"L&T Filters P/L",0297574908,ewayau_direct,babyloveezycombofruit,"Baby love ezy combo Harnessed Booster fruit loop",2,2,0,0,0,simple,189.0000,189.0000,378.0000,378.0000,50.0000,189.0000,189.0000,0.0000,0.0000,0.0000,0.0000,0.0000,0.0000,no,"a:1:{s:15:""info_buyRequest"";a:7:{s:4:""uenc"";s:160:""aHR0cDovL3d3dy5iYWJ5LWRpcmVjdC5jb20uYXUvYmFieS1sb3ZlLWV6eS1jb21iby1oYXJuZXNzZWQtYm9vc3Rlci1mcnVpdC1sb29wLmh0bWw_dXRtX21lZGl1bT1jcGMmdXRtX3NvdXJjZT1nZXRwcmljZQ,,"";s:7:""product"";s:3:""488"";s:3:""sku"";s:21:""babyloveezycombofruit"";s:10:""finalprice"";s:8:""189.0000"";s:5:""pagek"";s:7:""product"";s:15:""related_product"";s:0:"""";s:3:""qty"";s:1:""2"";}}"
100006432,bandtcarey@gmail.com,Tracey,Carey,,,,,"2016-04-09 10:28:24","2016-04-10 02:29:55","2016-04-09 10:28:29",,,0.0000,0.0000,0.0000,0.0000,0.0000,0.0000,1.0000,1.0000,1.0000,1.0000,119.9000,119.9000,,20.1600,20.1600,Temando,20.1600,119.9000,119.9000,140.0600,140.0600,20.1600,0,0,0,0,0,0,0,0,0,0,1,processing,processing,,,AUD,AUD,AUD,140.0600,140.0600,0,2.0000,121.223.196.224,,,,140.0600,,,Tracey,,Carey,,"3 Westwood Circuit",BUNGENDORE,"New South Wales",AU,2621,0409261077,,,,,Tracey,,Carey,,"3 Westwood Circuit",BUNGENDORE,"New South Wales",AU,2621,0409261077,,,ewayau_direct,brontetraditinalragdoll,"Silver Cross Bronte Traditional Rag Doll",1,1,0,0,0,simple,49.9500,49.9500,49.9500,49.9500,1.0000,49.9500,49.9500,0.0000,0.0000,0.0000,0.0000,0.0000,0.0000,no,"a:1:{s:15:""info_buyRequest"";a:7:{s:4:""uenc"";s:232:""aHR0cDovL3d3dy5iYWJ5LWRpcmVjdC5jb20uYXUvYnJvbnRlLXRyYWRpdGlvbmFsLXJhZy1kb2xsLmh0bWw_dXRtX2NhbXBhaWduPVRveXMrR2FtZXMmdXRtX21lZGl1bT1jcGMmdXRtX3NvdXJjZT1teXNob3BwaW5nJnV0bV90ZXJtPVNpbHZlcitDcm9zcytCcm9udGUrVHJhZGl0aW9uYWwrUmFnK0RvbGw,"";s:7:""product"";s:3:""806"";s:3:""sku"";s:23:""brontetraditinalragdoll"";s:10:""finalprice"";s:7:""49.9500"";s:5:""pagek"";s:7:""product"";s:15:""related_product"";s:0:"""";s:3:""qty"";s:1:""1"";}}"
,,,,,,,,,,,,,,,,,,,,,,,,,,,,,,,,,,,,,,,,,,,,,,,,,,,,,,,,,,,,,,,,,,,,,,,,,,,,,,,,,,,,,,,,,,,rosietraditinalragdoll,"Silver Cross Rosie Traditional Rag Doll",1,1,0,0,0,simple,69.9500,69.9500,69.9500,69.9500,1.0000,69.9500,69.9500,0.0000,0.0000,0.0000,0.0000,0.0000,0.0000,no,"a:1:{s:15:""info_buyRequest"";a:3:{s:4:""uenc"";s:116:""aHR0cDovL3d3dy5iYWJ5LWRpcmVjdC5jb20uYXUvY2F0YWxvZ3NlYXJjaC9yZXN1bHQvaW5kZXgvP3A9MyZxPXNpbHZlcitjcm9zcytyYWdkb2xscw,,"";s:7:""product"";s:3:""807"";s:3:""qty"";i:1;}}"
100006433,jessleake@gmail.com,jess,"mcqualter ",,,,,"2016-04-10 08:26:41","2016-04-11 03:13:40","2016-04-10 08:26:48",,,0.0000,0.0000,0.0000,0.0000,0.0000,0.0000,1.0000,1.0000,1.0000,1.0000,349.0000,349.0000,,99.4200,99.4200,Temando,99.4200,349.0000,349.0000,448.4200,448.4200,99.4200,0,0,0,0,0,0,0,0,0,0,1,processing,processing,,,AUD,AUD,AUD,448.4200,448.4200,0,1.0000,114.198.116.207,,,,448.4200,3945,,jess,,"mcqualter ",,"21 woollum cr",RIVETT,"Australian Capital Territory",AU,2611,0413360240,,,3945,,jess,,"mcqualter ",,"21 woollum cr",RIVETT,"Australian Capital Territory",AU,2611,0413360240,,,ewayau_direct,urbanewhite,"Baby Direct Urbane 7 Chest Drawer white/Free change pad",1,1,0,0,0,simple,349.0000,349.0000,349.0000,349.0000,50.0000,349.0000,349.0000,0.0000,0.0000,0.0000,0.0000,0.0000,0.0000,no,"a:1:{s:15:""info_buyRequest"";a:7:{s:4:""uenc"";s:132:""aHR0cDovL3d3dy5iYWJ5LWRpcmVjdC5jb20uYXUvYmFieS1jb3RzLWJhYnktZnVybml0dXJlL2JhYnktZGlyZWN0LXVyYmFuZS03LWNoZXN0LWRyYXdlci13aGl0ZS5odG1s"";s:7:""product"";s:3:""920"";s:3:""sku"";s:11:""urbanewhite"";s:10:""finalprice"";s:8:""349.0000"";s:5:""pagek"";s:7:""product"";s:15:""related_product"";s:0:"""";s:3:""qty"";s:1:""0"";}}"
100006434,Katjagermano@icloud.com,Katja,Germano,,,,,"2016-04-10 08:52:23","2016-04-11 03:16:53","2016-04-10 08:52:27",,,0.0000,0.0000,0.0000,0.0000,0.0000,0.0000,1.0000,1.0000,1.0000,1.0000,349.0000,349.0000,,22.5200,22.5200,Temando,22.5200,349.0000,349.0000,371.5200,371.5200,22.5200,0,0,0,0,0,0,0,0,0,0,1,processing,processing,,,AUD,AUD,AUD,371.5200,371.5200,0,1.0000,27.96.204.103,,,,371.5200,3946,,Katja,,Germano,,"2/71 Berry Ave",EDITHVALE,Victoria,AU,3196,0423781374,,,3946,,Katja,,Germano,,"2/71 Berry Ave",EDITHVALE,Victoria,AU,3196,0423781374,,,ewayau_direct,deluxebabychangetable,"Deluxe baby change table changer / 4 chest of drawers/free change pad---white",1,1,0,0,0,simple,349.0000,349.0000,349.0000,349.0000,50.0000,349.0000,349.0000,0.0000,0.0000,0.0000,0.0000,0.0000,0.0000,no,"a:1:{s:15:""info_buyRequest"";a:7:{s:4:""uenc"";s:196:""aHR0cDovL3d3dy5iYWJ5LWRpcmVjdC5jb20uYXUvYmFieS1jb3RzLWJhYnktZnVybml0dXJlL2JhYnktY2hhbmdlLXRhYmxlcy9kZWx1eGUtYmFieS1jaGFuZ2UtdGFibGUtY2hhbmdlci00LWNoZXN0LW9mLWRyYXdlcnMtZnJlZS1jaGFuZ2UtcGFkLmh0bWw,"";s:7:""product"";s:3:""751"";s:3:""sku"";s:21:""deluxebabychangetable"";s:10:""finalprice"";s:8:""349.0000"";s:5:""pagek"";s:7:""product"";s:15:""related_product"";s:0:"""";s:3:""qty"";s:1:""1"";}}"
100006435,fiona.cardillo@gmail.com,Fiona,Cardillo,,,,,"2016-04-10 08:58:23","2016-04-10 08:58:25","2016-04-10 08:58:25",,,0.0000,0.0000,0.0000,0.0000,0.0000,0.0000,1.0000,1.0000,1.0000,1.0000,549.0000,549.0000,,13.1900,13.1900,Temando,13.1900,549.0000,549.0000,562.1900,562.1900,13.1900,0,0,0,0,0,0,0,0,0,0,1,processing,processing,,,AUD,AUD,AUD,562.1900,562.1900,0,1.0000,58.110.70.56,,,,562.1900,,,Fiona,,Cardillo,,"49 Day Street 
Leichhardt",LEICHHARDT,"New South Wales",AU,2040,0401856775,,,,,Fiona,,Cardillo,,"49 Day Street 
Leichhardt",LEICHHARDT,"New South Wales",AU,2040,0401856775,,,ewayau_direct,yoyo-B/Gg,"Baby Zen Yoyo Stroller black frame with grey color Seat Pad",1,1,0,0,0,simple,549.0000,549.0000,549.0000,549.0000,6.0000,549.0000,549.0000,0.0000,0.0000,0.0000,0.0000,0.0000,0.0000,no,"a:1:{s:15:""info_buyRequest"";a:7:{s:4:""uenc"";s:172:""aHR0cDovL3d3dy5iYWJ5LWRpcmVjdC5jb20uYXUvYmFieS1wcmFtcy1iYWJ5LXN0cm9sbGVyL2JhYnl6ZW4vYmFieS16ZW4teW95by1zdHJvbGxlci1ibGFjay1mcmFtZS13aXRoLWdyZXktY29sb3Itc2VhdC1wYWQuaHRtbA,,"";s:7:""product"";s:3:""915"";s:3:""sku"";s:9:""yoyo-B/Gg"";s:10:""finalprice"";s:8:""549.0000"";s:5:""pagek"";s:7:""product"";s:15:""related_product"";s:0:"""";s:3:""qty"";s:1:""0"";}}"
100006436,elisagavaghan@hotmail.com,Elisa,Gavaghan,,,,,"2016-04-10 09:54:26","2016-04-11 06:05:23","2016-04-10 09:54:33",,,0.0000,0.0000,0.0000,0.0000,0.0000,0.0000,1.0000,1.0000,1.0000,1.0000,239.0000,239.0000,,0.0000,0.0000,"Temando - Free Shipping",0.0000,239.0000,239.0000,239.0000,239.0000,0.0000,0,0,0,0,0,0,0,0,0,0,1,processing,processing,,,AUD,AUD,AUD,239.0000,239.0000,0,1.0000,101.182.41.238,,,,239.0000,,,Elisa,,Gavaghan,,"163 Brees Road","KEILOR EAST",Victoria,AU,3033,0417884766,,,,,Elisa,,Gavaghan,,"309 Buckley Street",ESSENDON,Victoria,AU,3040,0417884766,"Tony's Pies",,ewayau_direct,9317270006191,"baby love odyssey twin stroller",1,1,0,0,0,simple,239.0000,239.0000,239.0000,239.0000,0.0000,239.0000,239.0000,0.0000,0.0000,0.0000,0.0000,0.0000,0.0000,no,"a:1:{s:15:""info_buyRequest"";a:7:{s:4:""uenc"";s:236:""aHR0cDovL3d3dy5iYWJ5LWRpcmVjdC5jb20uYXUvYmFieS1sb3ZlLW9keXNzZXktdHdpbi1zdHJvbGxlci5odG1sP3V0bV9jYW1wYWlnbj1TdHJvbGxlcnMrYW5kK1ByYW1zJnV0bV9tZWRpdW09Y3BjJnV0bV9zb3VyY2U9bXlzaG9wcGluZyZ1dG1fdGVybT1iYWJ5K2xvdmUrb2R5c3NleSt0d2luK3N0cm9sbGVy"";s:7:""product"";s:4:""1677"";s:3:""sku"";s:13:""9317270006191"";s:10:""finalprice"";s:3:""239"";s:5:""pagek"";s:7:""product"";s:15:""related_product"";s:0:"""";s:3:""qty"";s:1:""1"";}}"
100006437,cat.tupp@gmail.com,Catherine,Tuppurainen,,,,,"2016-04-10 10:08:48","2016-04-10 10:08:51","2016-04-10 10:08:51",,,0.0000,0.0000,0.0000,0.0000,0.0000,0.0000,1.0000,1.0000,1.0000,1.0000,158.9500,158.9500,,23.5800,23.5800,Temando,23.5800,158.9500,158.9500,182.5300,182.5300,23.5800,0,0,0,0,0,0,0,0,0,0,1,processing,processing,,,AUD,AUD,AUD,182.5300,182.5300,0,2.0000,124.170.136.136,,,,182.5300,,,Catherine,,Tuppurainen,,"64 Austral Avenue",GRACEVILLE,Queensland,AU,4075,0409727414,,,,,Catherine,,Tuppurainen,,"64 Austral Avenue",GRACEVILLE,Queensland,AU,4075,0409727414,,,ewayau_direct,am12/68,"BabyRest Standard Innerspring waterproof cot mattress 1310x680",1,1,0,0,0,simple,119.0000,119.0000,119.0000,119.0000,10.0000,119.0000,119.0000,0.0000,0.0000,0.0000,0.0000,0.0000,0.0000,no,"a:1:{s:15:""info_buyRequest"";a:7:{s:4:""uenc"";s:132:""aHR0cDovL3d3dy5iYWJ5LWRpcmVjdC5jb20uYXUvYmFieXJlc3Qtc3RhbmRhcmQtaW5uZXJzcHJpbmctd2F0ZXJwcm9vZi1jb3QtbWF0dHJlc3MtMTMxMHg2ODAuaHRtbA,,"";s:7:""product"";s:3:""608"";s:3:""sku"";s:7:""am12/68"";s:10:""finalprice"";s:3:""119"";s:5:""pagek"";s:7:""product"";s:15:""related_product"";s:0:"""";s:3:""qty"";s:1:""0"";}}"
,,,,,,,,,,,,,,,,,,,,,,,,,,,,,,,,,,,,,,,,,,,,,,,,,,,,,,,,,,,,,,,,,,,,,,,,,,,,,,,,,,,,,,,,,,,"800* 480mm","BabyRest Deluxe Change mattress. Waterproof cover. Colours: White & beige. 800* 480mm",1,1,0,0,0,simple,39.9500,39.9500,39.9500,39.9500,1.0000,39.9500,39.9500,0.0000,0.0000,0.0000,0.0000,0.0000,0.0000,no,"a:1:{s:15:""info_buyRequest"";a:3:{s:4:""uenc"";s:124:""aHR0cDovL3d3dy5iYWJ5LWRpcmVjdC5jb20uYXUvYmFieS1jb3RzLWJhYnktZnVybml0dXJlL2NoYW5nZS10YWJsZS1tYXQtYW5kLWFjY2Vzc29yaWVzLmh0bWw,"";s:7:""product"";s:3:""633"";s:3:""qty"";i:1;}}"
100006438,sophholdenson@yahoo.com.au,Sophie,Boyes,,,,,"2016-04-11 00:19:33","2016-04-11 06:25:54","2016-04-11 00:19:39",,,0.0000,0.0000,0.0000,0.0000,0.0000,0.0000,1.0000,1.0000,1.0000,1.0000,339.9900,339.9900,,0.0000,0.0000,"Temando - Free Shipping",0.0000,339.9900,339.9900,339.9900,339.9900,0.0000,0,0,0,0,0,0,0,0,0,0,1,processing,processing,,,AUD,AUD,AUD,339.9900,339.9900,0,1.0000,124.150.41.216,,,,339.9900,,,Sophie,,Boyes,,"11/37 Stephen St",YARRAVILLE,Victoria,AU,3013,0411406167,,,,,Sophie,,Boyes,,"11/37 Stephen St",YARRAVILLE,Victoria,AU,3013,0411406167,,,ewayau_direct,mbn2sb,"Mountain Buggy Nano 2 Stroller Black",1,1,0,0,0,simple,339.9900,339.9900,339.9900,339.9900,0.0000,339.9900,339.9900,0.0000,0.0000,0.0000,0.0000,0.0000,0.0000,no,"a:1:{s:15:""info_buyRequest"";a:7:{s:4:""uenc"";s:144:""aHR0cDovL3d3dy5iYWJ5LWRpcmVjdC5jb20uYXUvbW91bnRhaW4tYnVnZ3ktbmFuby0yLXN0cm9sbGVyLWJsYWNrLmh0bWw_dXRtX21lZGl1bT1jcGMmdXRtX3NvdXJjZT1nZXRwcmljZQ,,"";s:7:""product"";s:4:""1777"";s:3:""sku"";s:6:""mbn2sb"";s:10:""finalprice"";s:8:""339.9900"";s:5:""pagek"";s:7:""product"";s:15:""related_product"";s:0:"""";s:3:""qty"";s:1:""1"";}}"
100006439,kylietab@bigpond.net.au,Kylie,Tabone,,,,,"2016-04-11 02:16:37","2016-04-11 02:16:45","2016-04-11 02:16:45",,,0.0000,0.0000,0.0000,0.0000,0.0000,0.0000,1.0000,1.0000,1.0000,1.0000,79.9900,79.9900,,7.5000,7.5000,Temando,7.5000,79.9900,79.9900,87.4900,87.4900,7.5000,0,0,0,0,0,0,0,0,0,0,1,processing,processing,,,AUD,AUD,AUD,87.4900,87.4900,0,1.0000,203.174.156.18,,,,87.4900,,,Kylie,,Tabone,,"Level 14  333 Collins Street",MELBOURNE,Victoria,AU,3000,0418522465,"JAV IT Group",,,,Kylie,,Tabone,,"Level 14  333 Collins Street",MELBOURNE,Victoria,AU,3000,0418522465,"JAV IT Group",,ewayau_direct,mbphc2,"Mountain Buggy Pod High Chair",1,1,0,0,0,simple,79.9900,79.9900,79.9900,79.9900,5.0000,79.9900,79.9900,0.0000,0.0000,0.0000,0.0000,0.0000,0.0000,no,"a:1:{s:15:""info_buyRequest"";a:7:{s:4:""uenc"";s:140:""aHR0cDovL3d3dy5iYWJ5LWRpcmVjdC5jb20uYXUvbW91bnRhaW4tYnVnZ3ktcG9kLWhpZ2gtY2hhaXItMTgwMy5odG1sP3V0bV9tZWRpdW09Y3BjJnV0bV9zb3VyY2U9Z2V0cHJpY2U,"";s:7:""product"";s:4:""1803"";s:3:""sku"";s:6:""mbphc2"";s:10:""finalprice"";s:7:""79.9900"";s:5:""pagek"";s:7:""product"";s:15:""related_product"";s:0:"""";s:3:""qty"";s:1:""1"";}}"
100006444,Kgoosy@hotmail.com,"Kris ",Goos,,,,,"2016-04-11 10:14:01","2016-04-11 10:14:04","2016-04-11 10:14:04",,,0.0000,0.0000,0.0000,0.0000,0.0000,0.0000,1.0000,1.0000,1.0000,1.0000,849.0000,849.0000,,30.1900,30.1900,Temando,30.1900,849.0000,849.0000,879.1900,879.1900,30.1900,0,0,0,0,0,0,0,0,0,0,1,processing,processing,,,AUD,AUD,AUD,879.1900,879.1900,0,1.0000,121.208.198.62,,,,879.1900,,,"Kris ",,Goos,,"40 depot st Banyo 4014",BANYO,Queensland,AU,4014,0438753388,"Triple eight race engineering ",,,,"Kris ",,Goos,,"40 depot st Banyo 4014",BANYO,Queensland,AU,4014,0438753388,"Triple eight race engineering ",,ewayau_direct,jesancpc,"JANE EPIC STROLLER AND NANO CARRYCOT PACKAGE CLOUD",1,1,0,0,0,simple,849.0000,849.0000,849.0000,849.0000,25.0000,849.0000,849.0000,0.0000,0.0000,0.0000,0.0000,0.0000,0.0000,no,"a:1:{s:15:""info_buyRequest"";a:7:{s:4:""uenc"";s:116:""aHR0cDovL3d3dy5iYWJ5LWRpcmVjdC5jb20uYXUvamFuZS1lcGljLXN0cm9sbGVyLWFuZC1uYW5vLWNhcnJ5Y290LXBhY2thZ2UtY2xvdWQuaHRtbA,,"";s:7:""product"";s:4:""1533"";s:3:""sku"";s:8:""jesancpc"";s:10:""finalprice"";s:8:""849.0000"";s:5:""pagek"";s:7:""product"";s:15:""related_product"";s:0:"""";s:3:""qty"";s:1:""1"";}}"
